﻿ 2017-11-21 00:05:22,418 [P6732/D20/T48] INFO  Umbraco.Core.Security.BackOfficeSignInManager - Event Id: 0, state: Login attempt succeeded for username GeorgeCross4@hotmail.com from IP address ::1
 2017-11-21 00:05:22,420 [P6732/D20/T48] INFO  Umbraco.Core.Security.BackOfficeSignInManager - Event Id: 0, state: User: GeorgeCross4@hotmail.com logged in from IP address ::1
 2017-11-21 00:05:23,022 [P6732/D20/T44] INFO  Umbraco.Core.PluginManager - Resolving umbraco.interfaces.IDiscoverable
 2017-11-21 00:05:23,022 [P6732/D20/T44] INFO  Umbraco.Core.PluginManager - Resolved umbraco.interfaces.IDiscoverable (took 0ms)
 2017-11-21 00:05:23,023 [P6732/D20/T44] INFO  Umbraco.Core.PluginManager - Resolving [umbraco.businesslogic.ApplicationAttribute]umbraco.interfaces.IApplication
 2017-11-21 00:05:23,034 [P6732/D20/T44] INFO  Umbraco.Core.PluginManager - Resolved [umbraco.businesslogic.ApplicationAttribute]umbraco.interfaces.IApplication (took 12ms)
 2017-11-21 00:05:23,329 [P6732/D20/T44] INFO  Umbraco.Core.PluginManager - Resolving umbraco.interfaces.IDiscoverable
 2017-11-21 00:05:23,330 [P6732/D20/T44] INFO  Umbraco.Core.PluginManager - Resolved umbraco.interfaces.IDiscoverable (took 0ms)
 2017-11-21 00:05:23,330 [P6732/D20/T44] INFO  Umbraco.Core.PluginManager - Resolving [Umbraco.Web.Trees.TreeAttribute]Umbraco.Web.Trees.TreeController
 2017-11-21 00:05:23,330 [P6732/D20/T44] INFO  Umbraco.Core.PluginManager - Resolved [Umbraco.Web.Trees.TreeAttribute]Umbraco.Web.Trees.TreeController (took 0ms)
 2017-11-21 00:05:23,334 [P6732/D20/T44] INFO  Umbraco.Core.PluginManager - Resolving umbraco.interfaces.IDiscoverable
 2017-11-21 00:05:23,334 [P6732/D20/T44] INFO  Umbraco.Core.PluginManager - Resolved umbraco.interfaces.IDiscoverable (took 0ms)
 2017-11-21 00:05:23,334 [P6732/D20/T44] INFO  Umbraco.Core.PluginManager - Resolving [umbraco.businesslogic.TreeAttribute]umbraco.interfaces.ITree
 2017-11-21 00:05:23,335 [P6732/D20/T44] INFO  Umbraco.Core.PluginManager - Resolved [umbraco.businesslogic.TreeAttribute]umbraco.interfaces.ITree (took 0ms)
 2017-11-21 00:06:20,439 [P6732/D20/T21] INFO  umbraco.content - Load Xml from file...
 2017-11-21 00:06:20,464 [P6732/D20/T21] INFO  umbraco.content - Loaded Xml from file.
 2017-11-21 00:06:20,478 [P6732/D20/T21] INFO  Umbraco.Core.PluginManager - Resolving umbraco.interfaces.IDiscoverable
 2017-11-21 00:06:20,478 [P6732/D20/T21] INFO  Umbraco.Core.PluginManager - Resolved umbraco.interfaces.IDiscoverable (took 0ms)
 2017-11-21 00:06:20,478 [P6732/D20/T21] INFO  Umbraco.Core.PluginManager - Resolving [Umbraco.Core.Persistence.Mappers.MapperForAttribute]Umbraco.Core.Persistence.Mappers.BaseMapper
 2017-11-21 00:06:20,479 [P6732/D20/T21] INFO  Umbraco.Core.PluginManager - Resolved [Umbraco.Core.Persistence.Mappers.MapperForAttribute]Umbraco.Core.Persistence.Mappers.BaseMapper (took 0ms)
 2017-11-21 00:06:20,496 [P6732/D20/T44] INFO  umbraco.BusinessLogic.Log - Log scrubbed.  Removed all items older than 2017-11-20 00:06:20
 2017-11-21 00:24:53,157 [P6732/D20/T58] INFO  Umbraco.Core.Logging.OwinLogger - Event Id: 0, state: User logged will be logged out due to timeout: GeorgeCross4@hotmail.com, IP Address: ::1
 2017-11-21 17:35:08,682 [P6732/D20/T30] INFO  Umbraco.Core.Security.BackOfficeSignInManager - Event Id: 0, state: Login attempt succeeded for username GeorgeCross4@hotmail.com from IP address ::1
 2017-11-21 17:35:08,683 [P6732/D20/T30] INFO  Umbraco.Core.Security.BackOfficeSignInManager - Event Id: 0, state: User: GeorgeCross4@hotmail.com logged in from IP address ::1
